<?xml version="1.0" encoding="UTF-8"?>
<!DOCTYPE svg PUBLIC "-//W3C//DTD SVG 1.1//EN" "http://www.w3.org/Graphics/SVG/1.1/DTD/svg11.dtd">
<svg width="160mm" height="90mm" viewBox="0 0 16000 9000" version="1.1" xmlns="http://www.w3.org/2000/svg" stroke-width="28.222" stroke-linejoin="round" xml:space="preserve">
 <path fill="none" stroke="rgb(179,179,179)" stroke-linejoin="round" d="M 7588,7230 L 2535,7230 2535,1500 12640,1500 12640,7230 7588,7230 Z"/>
 <path fill="none" stroke="rgb(179,179,179)" stroke-linejoin="round" d="M 12639,7229 L 2535,7229"/>
 <path fill="none" stroke="rgb(179,179,179)" stroke-linejoin="round" d="M 12639,6410 L 2535,6410"/>
 <path fill="none" stroke="rgb(179,179,179)" stroke-linejoin="round" d="M 12639,5591 L 2535,5591"/>
 <path fill="none" stroke="rgb(179,179,179)" stroke-linejoin="round" d="M 12639,4772 L 2535,4772"/>
 <path fill="none" stroke="rgb(179,179,179)" stroke-linejoin="round" d="M 12639,3955 L 2535,3955"/>
 <path fill="none" stroke="rgb(179,179,179)" stroke-linejoin="round" d="M 12639,3136 L 2535,3136"/>
 <path fill="none" stroke="rgb(179,179,179)" stroke-linejoin="round" d="M 12639,2317 L 2535,2317"/>
 <path fill="none" stroke="rgb(179,179,179)" stroke-linejoin="round" d="M 12639,1498 L 2535,1498"/>
 <path fill="none" stroke="rgb(179,179,179)" stroke-linejoin="round" d="M 2535,7379 L 2535,7229"/>
 <path fill="none" stroke="rgb(179,179,179)" stroke-linejoin="round" d="M 2535,7379 L 2535,7229"/>
 <path fill="none" stroke="rgb(179,179,179)" stroke-linejoin="round" d="M 4556,7379 L 4556,7229"/>
 <path fill="none" stroke="rgb(179,179,179)" stroke-linejoin="round" d="M 4556,7379 L 4556,7229"/>
 <path fill="none" stroke="rgb(179,179,179)" stroke-linejoin="round" d="M 6577,7379 L 6577,7229"/>
 <path fill="none" stroke="rgb(179,179,179)" stroke-linejoin="round" d="M 6577,7379 L 6577,7229"/>
 <path fill="none" stroke="rgb(179,179,179)" stroke-linejoin="round" d="M 8597,7379 L 8597,7229"/>
 <path fill="none" stroke="rgb(179,179,179)" stroke-linejoin="round" d="M 8597,7379 L 8597,7229"/>
 <path fill="none" stroke="rgb(179,179,179)" stroke-linejoin="round" d="M 10618,7379 L 10618,7229"/>
 <path fill="none" stroke="rgb(179,179,179)" stroke-linejoin="round" d="M 10618,7379 L 10618,7229"/>
 <path fill="none" stroke="rgb(179,179,179)" stroke-linejoin="round" d="M 12639,7379 L 12639,7229"/>
 <path fill="none" stroke="rgb(179,179,179)" stroke-linejoin="round" d="M 12639,7379 L 12639,7229"/>
 <path fill="none" stroke="rgb(179,179,179)" stroke-linejoin="round" d="M 2535,7229 L 12639,7229"/>
 <path fill="none" stroke="rgb(179,179,179)" stroke-linejoin="round" d="M 2385,7229 L 2535,7229"/>
 <path fill="none" stroke="rgb(179,179,179)" stroke-linejoin="round" d="M 2385,7229 L 2535,7229"/>
 <path fill="none" stroke="rgb(179,179,179)" stroke-linejoin="round" d="M 2385,6410 L 2535,6410"/>
 <path fill="none" stroke="rgb(179,179,179)" stroke-linejoin="round" d="M 2385,6410 L 2535,6410"/>
 <path fill="none" stroke="rgb(179,179,179)" stroke-linejoin="round" d="M 2385,5591 L 2535,5591"/>
 <path fill="none" stroke="rgb(179,179,179)" stroke-linejoin="round" d="M 2385,5591 L 2535,5591"/>
 <path fill="none" stroke="rgb(179,179,179)" stroke-linejoin="round" d="M 2385,4772 L 2535,4772"/>
 <path fill="none" stroke="rgb(179,179,179)" stroke-linejoin="round" d="M 2385,4772 L 2535,4772"/>
 <path fill="none" stroke="rgb(179,179,179)" stroke-linejoin="round" d="M 2385,3955 L 2535,3955"/>
 <path fill="none" stroke="rgb(179,179,179)" stroke-linejoin="round" d="M 2385,3955 L 2535,3955"/>
 <path fill="none" stroke="rgb(179,179,179)" stroke-linejoin="round" d="M 2385,3136 L 2535,3136"/>
 <path fill="none" stroke="rgb(179,179,179)" stroke-linejoin="round" d="M 2385,3136 L 2535,3136"/>
 <path fill="none" stroke="rgb(179,179,179)" stroke-linejoin="round" d="M 2385,2317 L 2535,2317"/>
 <path fill="none" stroke="rgb(179,179,179)" stroke-linejoin="round" d="M 2385,2317 L 2535,2317"/>
 <path fill="none" stroke="rgb(179,179,179)" stroke-linejoin="round" d="M 2385,1498 L 2535,1498"/>
 <path fill="none" stroke="rgb(179,179,179)" stroke-linejoin="round" d="M 2385,1498 L 2535,1498"/>
 <path fill="none" stroke="rgb(179,179,179)" stroke-linejoin="round" d="M 2535,7229 L 2535,1498"/>
 <path fill="none" stroke="rgb(49,64,4)" stroke-width="80" stroke-linejoin="round" d="M 2535,2381 L 4556,2395 6577,2394 8597,2392 10618,2392 12639,2393"/>
 <path fill="rgb(49,64,4)" stroke="none" d="M 2410,2256 L 2410,2506 2660,2256 2660,2506 2410,2256 Z"/>
 <path fill="none" stroke="rgb(49,64,4)" stroke-linejoin="round" d="M 2410,2256 L 2410,2506 2660,2256 2660,2506 2410,2256 Z"/>
 <path fill="rgb(49,64,4)" stroke="none" d="M 4431,2270 L 4431,2520 4681,2270 4681,2520 4431,2270 Z"/>
 <path fill="none" stroke="rgb(49,64,4)" stroke-linejoin="round" d="M 4431,2270 L 4431,2520 4681,2270 4681,2520 4431,2270 Z"/>
 <path fill="rgb(49,64,4)" stroke="none" d="M 6452,2269 L 6452,2519 6702,2269 6702,2519 6452,2269 Z"/>
 <path fill="none" stroke="rgb(49,64,4)" stroke-linejoin="round" d="M 6452,2269 L 6452,2519 6702,2269 6702,2519 6452,2269 Z"/>
 <path fill="rgb(49,64,4)" stroke="none" d="M 8472,2267 L 8472,2517 8722,2267 8722,2517 8472,2267 Z"/>
 <path fill="none" stroke="rgb(49,64,4)" stroke-linejoin="round" d="M 8472,2267 L 8472,2517 8722,2267 8722,2517 8472,2267 Z"/>
 <path fill="rgb(49,64,4)" stroke="none" d="M 10493,2267 L 10493,2517 10743,2267 10743,2517 10493,2267 Z"/>
 <path fill="none" stroke="rgb(49,64,4)" stroke-linejoin="round" d="M 10493,2267 L 10493,2517 10743,2267 10743,2517 10493,2267 Z"/>
 <path fill="rgb(49,64,4)" stroke="none" d="M 12514,2268 L 12514,2518 12764,2268 12764,2518 12514,2268 Z"/>
 <path fill="none" stroke="rgb(49,64,4)" stroke-linejoin="round" d="M 12514,2268 L 12514,2518 12764,2268 12764,2518 12514,2268 Z"/>
 <path fill="none" stroke="rgb(131,202,255)" stroke-width="80" stroke-linejoin="round" d="M 2535,3778 L 4556,3934 6577,4089 8597,4245 10618,4401 12639,4528"/>
 <path fill="rgb(131,202,255)" stroke="none" d="M 2410,3778 L 2660,3903 2660,3653 2410,3778 Z"/>
 <path fill="none" stroke="rgb(131,202,255)" stroke-linejoin="round" d="M 2410,3778 L 2660,3903 2660,3653 2410,3778 Z"/>
 <path fill="rgb(131,202,255)" stroke="none" d="M 4431,3934 L 4681,4059 4681,3809 4431,3934 Z"/>
 <path fill="none" stroke="rgb(131,202,255)" stroke-linejoin="round" d="M 4431,3934 L 4681,4059 4681,3809 4431,3934 Z"/>
 <path fill="rgb(131,202,255)" stroke="none" d="M 6452,4089 L 6702,4214 6702,3964 6452,4089 Z"/>
 <path fill="none" stroke="rgb(131,202,255)" stroke-linejoin="round" d="M 6452,4089 L 6702,4214 6702,3964 6452,4089 Z"/>
 <path fill="rgb(131,202,255)" stroke="none" d="M 8472,4245 L 8722,4370 8722,4120 8472,4245 Z"/>
 <path fill="none" stroke="rgb(131,202,255)" stroke-linejoin="round" d="M 8472,4245 L 8722,4370 8722,4120 8472,4245 Z"/>
 <path fill="rgb(131,202,255)" stroke="none" d="M 10493,4401 L 10743,4525 10743,4276 10493,4401 Z"/>
 <path fill="none" stroke="rgb(131,202,255)" stroke-linejoin="round" d="M 10493,4401 L 10743,4525 10743,4276 10493,4401 Z"/>
 <path fill="rgb(131,202,255)" stroke="none" d="M 12514,4528 L 12764,4653 12764,4404 12514,4528 Z"/>
 <path fill="none" stroke="rgb(131,202,255)" stroke-linejoin="round" d="M 12514,4528 L 12764,4653 12764,4404 12514,4528 Z"/>
 <path fill="none" stroke="rgb(126,0,33)" stroke-width="80" stroke-linejoin="round" d="M 2535,4524 L 4556,4674 6577,4825 8597,4975 10618,5126 12639,5277"/>
 <path fill="rgb(126,0,33)" stroke="none" d="M 2410,4400 L 2410,4649 2660,4524 2410,4400 Z"/>
 <path fill="none" stroke="rgb(126,0,33)" stroke-linejoin="round" d="M 2410,4400 L 2410,4649 2660,4524 2410,4400 Z"/>
 <path fill="rgb(126,0,33)" stroke="none" d="M 4431,4549 L 4431,4799 4681,4674 4431,4549 Z"/>
 <path fill="none" stroke="rgb(126,0,33)" stroke-linejoin="round" d="M 4431,4549 L 4431,4799 4681,4674 4431,4549 Z"/>
 <path fill="rgb(126,0,33)" stroke="none" d="M 6452,4700 L 6452,4950 6702,4825 6452,4700 Z"/>
 <path fill="none" stroke="rgb(126,0,33)" stroke-linejoin="round" d="M 6452,4700 L 6452,4950 6702,4825 6452,4700 Z"/>
 <path fill="rgb(126,0,33)" stroke="none" d="M 8472,4850 L 8472,5100 8722,4975 8472,4850 Z"/>
 <path fill="none" stroke="rgb(126,0,33)" stroke-linejoin="round" d="M 8472,4850 L 8472,5100 8722,4975 8472,4850 Z"/>
 <path fill="rgb(126,0,33)" stroke="none" d="M 10493,5001 L 10493,5251 10743,5126 10493,5001 Z"/>
 <path fill="none" stroke="rgb(126,0,33)" stroke-linejoin="round" d="M 10493,5001 L 10493,5251 10743,5126 10493,5001 Z"/>
 <path fill="rgb(126,0,33)" stroke="none" d="M 12514,5152 L 12514,5402 12764,5277 12514,5152 Z"/>
 <path fill="none" stroke="rgb(126,0,33)" stroke-linejoin="round" d="M 12514,5152 L 12514,5402 12764,5277 12514,5152 Z"/>
 <path fill="none" stroke="rgb(87,157,28)" stroke-width="80" stroke-linejoin="round" d="M 2535,4524 L 4556,4674 6577,4825 8597,4975 10618,5126 12639,5277"/>
 <path fill="rgb(87,157,28)" stroke="none" d="M 2410,4649 L 2660,4649 2535,4400 2410,4649 Z"/>
 <path fill="none" stroke="rgb(87,157,28)" stroke-linejoin="round" d="M 2410,4649 L 2660,4649 2535,4400 2410,4649 Z"/>
 <path fill="rgb(87,157,28)" stroke="none" d="M 4431,4799 L 4681,4799 4556,4549 4431,4799 Z"/>
 <path fill="none" stroke="rgb(87,157,28)" stroke-linejoin="round" d="M 4431,4799 L 4681,4799 4556,4549 4431,4799 Z"/>
 <path fill="rgb(87,157,28)" stroke="none" d="M 6452,4950 L 6702,4950 6577,4700 6452,4950 Z"/>
 <path fill="none" stroke="rgb(87,157,28)" stroke-linejoin="round" d="M 6452,4950 L 6702,4950 6577,4700 6452,4950 Z"/>
 <path fill="rgb(87,157,28)" stroke="none" d="M 8472,5100 L 8722,5100 8597,4850 8472,5100 Z"/>
 <path fill="none" stroke="rgb(87,157,28)" stroke-linejoin="round" d="M 8472,5100 L 8722,5100 8597,4850 8472,5100 Z"/>
 <path fill="rgb(87,157,28)" stroke="none" d="M 10493,5251 L 10743,5251 10618,5001 10493,5251 Z"/>
 <path fill="none" stroke="rgb(87,157,28)" stroke-linejoin="round" d="M 10493,5251 L 10743,5251 10618,5001 10493,5251 Z"/>
 <path fill="rgb(87,157,28)" stroke="none" d="M 12514,5402 L 12764,5402 12639,5152 12514,5402 Z"/>
 <path fill="none" stroke="rgb(87,157,28)" stroke-linejoin="round" d="M 12514,5402 L 12764,5402 12639,5152 12514,5402 Z"/>
 <path fill="none" stroke="rgb(255,211,32)" stroke-width="80" stroke-linejoin="round" d="M 2535,3778 L 4556,3934 6577,4089 8597,4245 10618,4401 12639,4528"/>
 <path fill="rgb(255,211,32)" stroke="none" d="M 2410,3653 L 2535,3903 2660,3653 2410,3653 Z"/>
 <path fill="none" stroke="rgb(255,211,32)" stroke-linejoin="round" d="M 2410,3653 L 2535,3903 2660,3653 2410,3653 Z"/>
 <path fill="rgb(255,211,32)" stroke="none" d="M 4431,3809 L 4556,4059 4681,3809 4431,3809 Z"/>
 <path fill="none" stroke="rgb(255,211,32)" stroke-linejoin="round" d="M 4431,3809 L 4556,4059 4681,3809 4431,3809 Z"/>
 <path fill="rgb(255,211,32)" stroke="none" d="M 6452,3964 L 6577,4214 6702,3964 6452,3964 Z"/>
 <path fill="none" stroke="rgb(255,211,32)" stroke-linejoin="round" d="M 6452,3964 L 6577,4214 6702,3964 6452,3964 Z"/>
 <path fill="rgb(255,211,32)" stroke="none" d="M 8472,4120 L 8597,4370 8722,4120 8472,4120 Z"/>
 <path fill="none" stroke="rgb(255,211,32)" stroke-linejoin="round" d="M 8472,4120 L 8597,4370 8722,4120 8472,4120 Z"/>
 <path fill="rgb(255,211,32)" stroke="none" d="M 10493,4276 L 10618,4525 10743,4276 10493,4276 Z"/>
 <path fill="none" stroke="rgb(255,211,32)" stroke-linejoin="round" d="M 10493,4276 L 10618,4525 10743,4276 10493,4276 Z"/>
 <path fill="rgb(255,211,32)" stroke="none" d="M 12514,4404 L 12639,4653 12764,4404 12514,4404 Z"/>
 <path fill="none" stroke="rgb(255,211,32)" stroke-linejoin="round" d="M 12514,4404 L 12639,4653 12764,4404 12514,4404 Z"/>
 <path fill="none" stroke="rgb(255,66,14)" stroke-width="80" stroke-linejoin="round" d="M 2535,5465 L 4556,5658 6577,5852 8597,6045 10618,6238 12639,6431"/>
 <path fill="rgb(255,66,14)" stroke="none" d="M 2410,5465 L 2535,5590 2660,5465 2535,5340 2410,5465 Z"/>
 <path fill="none" stroke="rgb(255,66,14)" stroke-linejoin="round" d="M 2410,5465 L 2535,5590 2660,5465 2535,5340 2410,5465 Z"/>
 <path fill="rgb(255,66,14)" stroke="none" d="M 4431,5658 L 4556,5783 4681,5658 4556,5533 4431,5658 Z"/>
 <path fill="none" stroke="rgb(255,66,14)" stroke-linejoin="round" d="M 4431,5658 L 4556,5783 4681,5658 4556,5533 4431,5658 Z"/>
 <path fill="rgb(255,66,14)" stroke="none" d="M 6452,5852 L 6577,5977 6702,5852 6577,5727 6452,5852 Z"/>
 <path fill="none" stroke="rgb(255,66,14)" stroke-linejoin="round" d="M 6452,5852 L 6577,5977 6702,5852 6577,5727 6452,5852 Z"/>
 <path fill="rgb(255,66,14)" stroke="none" d="M 8472,6045 L 8597,6170 8722,6045 8597,5920 8472,6045 Z"/>
 <path fill="none" stroke="rgb(255,66,14)" stroke-linejoin="round" d="M 8472,6045 L 8597,6170 8722,6045 8597,5920 8472,6045 Z"/>
 <path fill="rgb(255,66,14)" stroke="none" d="M 10493,6238 L 10618,6363 10743,6238 10618,6113 10493,6238 Z"/>
 <path fill="none" stroke="rgb(255,66,14)" stroke-linejoin="round" d="M 10493,6238 L 10618,6363 10743,6238 10618,6113 10493,6238 Z"/>
 <path fill="rgb(255,66,14)" stroke="none" d="M 12514,6431 L 12639,6556 12764,6431 12639,6306 12514,6431 Z"/>
 <path fill="none" stroke="rgb(255,66,14)" stroke-linejoin="round" d="M 12514,6431 L 12639,6556 12764,6431 12639,6306 12514,6431 Z"/>
 <path fill="none" stroke="rgb(0,69,134)" stroke-width="80" stroke-linejoin="round" d="M 2535,4524 L 4556,4674 6577,4825 8597,4975 10618,5126 12639,5277"/>
 <path fill="rgb(0,69,134)" stroke="none" d="M 2410,4400 L 2410,4649 2660,4649 2660,4400 2410,4400 Z"/>
 <path fill="none" stroke="rgb(0,69,134)" stroke-linejoin="round" d="M 2410,4400 L 2410,4649 2660,4649 2660,4400 2410,4400 Z"/>
 <path fill="rgb(0,69,134)" stroke="none" d="M 4431,4549 L 4431,4799 4681,4799 4681,4549 4431,4549 Z"/>
 <path fill="none" stroke="rgb(0,69,134)" stroke-linejoin="round" d="M 4431,4549 L 4431,4799 4681,4799 4681,4549 4431,4549 Z"/>
 <path fill="rgb(0,69,134)" stroke="none" d="M 6452,4700 L 6452,4950 6702,4950 6702,4700 6452,4700 Z"/>
 <path fill="none" stroke="rgb(0,69,134)" stroke-linejoin="round" d="M 6452,4700 L 6452,4950 6702,4950 6702,4700 6452,4700 Z"/>
 <path fill="rgb(0,69,134)" stroke="none" d="M 8472,4850 L 8472,5100 8722,5100 8722,4850 8472,4850 Z"/>
 <path fill="none" stroke="rgb(0,69,134)" stroke-linejoin="round" d="M 8472,4850 L 8472,5100 8722,5100 8722,4850 8472,4850 Z"/>
 <path fill="rgb(0,69,134)" stroke="none" d="M 10493,5001 L 10493,5251 10743,5251 10743,5001 10493,5001 Z"/>
 <path fill="none" stroke="rgb(0,69,134)" stroke-linejoin="round" d="M 10493,5001 L 10493,5251 10743,5251 10743,5001 10493,5001 Z"/>
 <path fill="rgb(0,69,134)" stroke="none" d="M 12514,5152 L 12514,5402 12764,5402 12764,5152 12514,5152 Z"/>
 <path fill="none" stroke="rgb(0,69,134)" stroke-linejoin="round" d="M 12514,5152 L 12514,5402 12764,5402 12764,5152 12514,5152 Z"/>
 <text class="TextShape"><tspan class="TextParagraph" font-family="Liberation Sans, sans-serif" font-size="353px" font-weight="400"><tspan class="TextPosition" x="2438" y="7797"><tspan fill="rgb(0,0,0)" stroke="none">0</tspan></tspan></tspan></text>
 <text class="TextShape"><tspan class="TextParagraph" font-family="Liberation Sans, sans-serif" font-size="353px" font-weight="400"><tspan class="TextPosition" x="4362" y="7797"><tspan fill="rgb(0,0,0)" stroke="none">20</tspan></tspan></tspan></text>
 <text class="TextShape"><tspan class="TextParagraph" font-family="Liberation Sans, sans-serif" font-size="353px" font-weight="400"><tspan class="TextPosition" x="6383" y="7797"><tspan fill="rgb(0,0,0)" stroke="none">40</tspan></tspan></tspan></text>
 <text class="TextShape"><tspan class="TextParagraph" font-family="Liberation Sans, sans-serif" font-size="353px" font-weight="400"><tspan class="TextPosition" x="8404" y="7797"><tspan fill="rgb(0,0,0)" stroke="none">60</tspan></tspan></tspan></text>
 <text class="TextShape"><tspan class="TextParagraph" font-family="Liberation Sans, sans-serif" font-size="353px" font-weight="400"><tspan class="TextPosition" x="10425" y="7797"><tspan fill="rgb(0,0,0)" stroke="none">80</tspan></tspan></tspan></text>
 <text class="TextShape"><tspan class="TextParagraph" font-family="Liberation Sans, sans-serif" font-size="353px" font-weight="400"><tspan class="TextPosition" x="12349" y="7797"><tspan fill="rgb(0,0,0)" stroke="none">100</tspan></tspan></tspan></text>
 <text class="TextShape"><tspan class="TextParagraph" font-family="Liberation Sans, sans-serif" font-size="353px" font-weight="400"><tspan class="TextPosition" x="2091" y="7354"><tspan fill="rgb(0,0,0)" stroke="none">0</tspan></tspan></tspan></text>
 <text class="TextShape"><tspan class="TextParagraph" font-family="Liberation Sans, sans-serif" font-size="353px" font-weight="400"><tspan class="TextPosition" x="1315" y="6535"><tspan fill="rgb(0,0,0)" stroke="none">10000</tspan></tspan></tspan></text>
 <text class="TextShape"><tspan class="TextParagraph" font-family="Liberation Sans, sans-serif" font-size="353px" font-weight="400"><tspan class="TextPosition" x="1315" y="5716"><tspan fill="rgb(0,0,0)" stroke="none">20000</tspan></tspan></tspan></text>
 <text class="TextShape"><tspan class="TextParagraph" font-family="Liberation Sans, sans-serif" font-size="353px" font-weight="400"><tspan class="TextPosition" x="1315" y="4897"><tspan fill="rgb(0,0,0)" stroke="none">30000</tspan></tspan></tspan></text>
 <text class="TextShape"><tspan class="TextParagraph" font-family="Liberation Sans, sans-serif" font-size="353px" font-weight="400"><tspan class="TextPosition" x="1315" y="4079"><tspan fill="rgb(0,0,0)" stroke="none">40000</tspan></tspan></tspan></text>
 <text class="TextShape"><tspan class="TextParagraph" font-family="Liberation Sans, sans-serif" font-size="353px" font-weight="400"><tspan class="TextPosition" x="1315" y="3260"><tspan fill="rgb(0,0,0)" stroke="none">50000</tspan></tspan></tspan></text>
 <text class="TextShape"><tspan class="TextParagraph" font-family="Liberation Sans, sans-serif" font-size="353px" font-weight="400"><tspan class="TextPosition" x="1315" y="2441"><tspan fill="rgb(0,0,0)" stroke="none">60000</tspan></tspan></tspan></text>
 <text class="TextShape"><tspan class="TextParagraph" font-family="Liberation Sans, sans-serif" font-size="353px" font-weight="400"><tspan class="TextPosition" x="1315" y="1622"><tspan fill="rgb(0,0,0)" stroke="none">70000</tspan></tspan></tspan></text>
 <text class="TextShape"><tspan class="TextParagraph" font-family="Liberation Sans, sans-serif" font-size="459px" font-weight="400"><tspan class="TextPosition" x="6663" y="881"><tspan fill="rgb(0,0,0)" stroke="none">Block penalty</tspan></tspan></tspan></text>
 <path fill="none" stroke="rgb(0,69,134)" stroke-width="80" stroke-linejoin="round" d="M 13369,3038 L 14169,3038"/>
 <path fill="rgb(0,69,134)" stroke="none" d="M 13663,2933 L 13663,3144 13874,3144 13874,2933 13663,2933 Z"/>
 <path fill="none" stroke="rgb(0,69,134)" stroke-linejoin="round" d="M 13663,2933 L 13663,3144 13874,3144 13874,2933 13663,2933 Z"/>
 <path fill="none" stroke="rgb(255,66,14)" stroke-width="80" stroke-linejoin="round" d="M 13369,3528 L 14169,3528"/>
 <path fill="rgb(255,66,14)" stroke="none" d="M 13663,3528 L 13769,3634 13874,3528 13769,3423 13663,3528 Z"/>
 <path fill="none" stroke="rgb(255,66,14)" stroke-linejoin="round" d="M 13663,3528 L 13769,3634 13874,3528 13769,3423 13663,3528 Z"/>
 <path fill="none" stroke="rgb(255,211,32)" stroke-width="80" stroke-linejoin="round" d="M 13369,4018 L 14169,4018"/>
 <path fill="rgb(255,211,32)" stroke="none" d="M 13663,3913 L 13769,4124 13874,3913 13663,3913 Z"/>
 <path fill="none" stroke="rgb(255,211,32)" stroke-linejoin="round" d="M 13663,3913 L 13769,4124 13874,3913 13663,3913 Z"/>
 <path fill="none" stroke="rgb(87,157,28)" stroke-width="80" stroke-linejoin="round" d="M 13369,4508 L 14169,4508"/>
 <path fill="rgb(87,157,28)" stroke="none" d="M 13663,4613 L 13874,4613 13769,4403 13663,4613 Z"/>
 <path fill="none" stroke="rgb(87,157,28)" stroke-linejoin="round" d="M 13663,4613 L 13874,4613 13769,4403 13663,4613 Z"/>
 <path fill="none" stroke="rgb(126,0,33)" stroke-width="80" stroke-linejoin="round" d="M 13369,4997 L 14169,4997"/>
 <path fill="rgb(126,0,33)" stroke="none" d="M 13663,4892 L 13663,5103 13874,4997 13663,4892 Z"/>
 <path fill="none" stroke="rgb(126,0,33)" stroke-linejoin="round" d="M 13663,4892 L 13663,5103 13874,4997 13663,4892 Z"/>
 <path fill="none" stroke="rgb(131,202,255)" stroke-width="80" stroke-linejoin="round" d="M 13369,5487 L 14169,5487"/>
 <path fill="rgb(131,202,255)" stroke="none" d="M 13663,5487 L 13874,5593 13874,5382 13663,5487 Z"/>
 <path fill="none" stroke="rgb(131,202,255)" stroke-linejoin="round" d="M 13663,5487 L 13874,5593 13874,5382 13663,5487 Z"/>
 <path fill="none" stroke="rgb(49,64,4)" stroke-width="80" stroke-linejoin="round" d="M 13369,5977 L 14169,5977"/>
 <path fill="rgb(49,64,4)" stroke="none" d="M 13663,5872 L 13663,6083 13874,5872 13874,6083 13663,5872 Z"/>
 <path fill="none" stroke="rgb(49,64,4)" stroke-linejoin="round" d="M 13663,5872 L 13663,6083 13874,5872 13874,6083 13663,5872 Z"/>
 <text class="TextShape"><tspan class="TextParagraph" font-family="Liberation Sans, sans-serif" font-size="353px" font-weight="400"><tspan class="TextPosition" x="14269" y="3162"><tspan fill="rgb(0,0,0)" stroke="none">BP-FF</tspan></tspan></tspan></text>
 <text class="TextShape"><tspan class="TextParagraph" font-family="Liberation Sans, sans-serif" font-size="353px" font-weight="400"><tspan class="TextPosition" x="14269" y="3652"><tspan fill="rgb(0,0,0)" stroke="none">Xu et al.</tspan></tspan></tspan></text>
 <text class="TextShape"><tspan class="TextParagraph" font-family="Liberation Sans, sans-serif" font-size="353px" font-weight="400"><tspan class="TextPosition" x="14269" y="4142"><tspan fill="rgb(0,0,0)" stroke="none">TABLE</tspan></tspan></tspan></text>
 <text class="TextShape"><tspan class="TextParagraph" font-family="Liberation Sans, sans-serif" font-size="353px" font-weight="400"><tspan class="TextPosition" x="14269" y="4631"><tspan fill="rgb(0,0,0)" stroke="none">TOWEL</tspan></tspan></tspan></text>
 <text class="TextShape"><tspan class="TextParagraph" font-family="Liberation Sans, sans-serif" font-size="353px" font-weight="400"><tspan class="TextPosition" x="14269" y="5121"><tspan fill="rgb(0,0,0)" stroke="none">ROTATE</tspan></tspan></tspan></text>
 <text class="TextShape"><tspan class="TextParagraph" font-family="Liberation Sans, sans-serif" font-size="353px" font-weight="400"><tspan class="TextPosition" x="14269" y="5611"><tspan fill="rgb(0,0,0)" stroke="none">Primal</tspan></tspan></tspan></text>
 <text class="TextShape"><tspan class="TextParagraph" font-family="Liberation Sans, sans-serif" font-size="353px" font-weight="400"><tspan class="TextPosition" x="14269" y="6101"><tspan fill="rgb(0,0,0)" stroke="none">Dual</tspan></tspan></tspan></text>
 <text class="TextShape"><tspan class="TextParagraph" font-family="Liberation Sans, sans-serif" font-size="318px" font-weight="400"><tspan class="TextPosition" x="6595" y="8428"><tspan fill="rgb(0,0,0)" stroke="none">Penalty</tspan></tspan></tspan></text>
 <text class="TextShape" transform="translate(828,5671) rotate(-90) translate(-828,-5671)"><tspan class="TextParagraph" font-family="Liberation Sans, sans-serif" font-size="318px" font-weight="400"><tspan class="TextPosition" x="828" y="5671"><tspan fill="rgb(0,0,0)" stroke="none">Objective value</tspan></tspan></tspan></text>
</svg>