<?xml version="1.0" encoding="UTF-8"?>
<!DOCTYPE svg PUBLIC "-//W3C//DTD SVG 1.1//EN" "http://www.w3.org/Graphics/SVG/1.1/DTD/svg11.dtd">
<svg width="160mm" height="90mm" viewBox="0 0 16000 9000" version="1.1" xmlns="http://www.w3.org/2000/svg" stroke-width="28.222" stroke-linejoin="round" xml:space="preserve">
 <path fill="none" stroke="rgb(179,179,179)" stroke-linejoin="round" d="M 7694,7663 L 2659,7663 2659,1499 12728,1499 12728,7663 7694,7663 Z"/>
 <path fill="none" stroke="rgb(179,179,179)" stroke-linejoin="round" d="M 12727,7662 L 2659,7662"/>
 <path fill="none" stroke="rgb(179,179,179)" stroke-linejoin="round" d="M 12727,6429 L 2659,6429"/>
 <path fill="none" stroke="rgb(179,179,179)" stroke-linejoin="round" d="M 12727,5196 L 2659,5196"/>
 <path fill="none" stroke="rgb(179,179,179)" stroke-linejoin="round" d="M 12727,3964 L 2659,3964"/>
 <path fill="none" stroke="rgb(179,179,179)" stroke-linejoin="round" d="M 12727,2730 L 2659,2730"/>
 <path fill="none" stroke="rgb(179,179,179)" stroke-linejoin="round" d="M 12727,1497 L 2659,1497"/>
 <path fill="none" stroke="rgb(179,179,179)" stroke-linejoin="round" d="M 2659,5346 L 2659,5196"/>
 <path fill="none" stroke="rgb(179,179,179)" stroke-linejoin="round" d="M 2659,5346 L 2659,5196"/>
 <path fill="none" stroke="rgb(179,179,179)" stroke-linejoin="round" d="M 5176,5346 L 5176,5196"/>
 <path fill="none" stroke="rgb(179,179,179)" stroke-linejoin="round" d="M 5176,5346 L 5176,5196"/>
 <path fill="none" stroke="rgb(179,179,179)" stroke-linejoin="round" d="M 7693,5346 L 7693,5196"/>
 <path fill="none" stroke="rgb(179,179,179)" stroke-linejoin="round" d="M 7693,5346 L 7693,5196"/>
 <path fill="none" stroke="rgb(179,179,179)" stroke-linejoin="round" d="M 10210,5346 L 10210,5196"/>
 <path fill="none" stroke="rgb(179,179,179)" stroke-linejoin="round" d="M 10210,5346 L 10210,5196"/>
 <path fill="none" stroke="rgb(179,179,179)" stroke-linejoin="round" d="M 12727,5346 L 12727,5196"/>
 <path fill="none" stroke="rgb(179,179,179)" stroke-linejoin="round" d="M 12727,5346 L 12727,5196"/>
 <path fill="none" stroke="rgb(179,179,179)" stroke-linejoin="round" d="M 2659,5196 L 12727,5196"/>
 <path fill="none" stroke="rgb(179,179,179)" stroke-linejoin="round" d="M 2509,7662 L 2659,7662"/>
 <path fill="none" stroke="rgb(179,179,179)" stroke-linejoin="round" d="M 2509,7662 L 2659,7662"/>
 <path fill="none" stroke="rgb(179,179,179)" stroke-linejoin="round" d="M 2509,6429 L 2659,6429"/>
 <path fill="none" stroke="rgb(179,179,179)" stroke-linejoin="round" d="M 2509,6429 L 2659,6429"/>
 <path fill="none" stroke="rgb(179,179,179)" stroke-linejoin="round" d="M 2509,5196 L 2659,5196"/>
 <path fill="none" stroke="rgb(179,179,179)" stroke-linejoin="round" d="M 2509,5196 L 2659,5196"/>
 <path fill="none" stroke="rgb(179,179,179)" stroke-linejoin="round" d="M 2509,3963 L 2659,3963"/>
 <path fill="none" stroke="rgb(179,179,179)" stroke-linejoin="round" d="M 2509,3963 L 2659,3963"/>
 <path fill="none" stroke="rgb(179,179,179)" stroke-linejoin="round" d="M 2509,2731 L 2659,2731"/>
 <path fill="none" stroke="rgb(179,179,179)" stroke-linejoin="round" d="M 2509,2731 L 2659,2731"/>
 <path fill="none" stroke="rgb(179,179,179)" stroke-linejoin="round" d="M 2509,1498 L 2659,1498"/>
 <path fill="none" stroke="rgb(179,179,179)" stroke-linejoin="round" d="M 2509,1498 L 2659,1498"/>
 <path fill="none" stroke="rgb(179,179,179)" stroke-linejoin="round" d="M 2659,7662 L 2659,1497"/>
 <path fill="none" stroke="rgb(0,69,134)" stroke-width="80" stroke-linejoin="round" d="M 2659,7038 L 5176,6541 7693,6370 10210,6125 12727,6212"/>
 <path fill="rgb(0,69,134)" stroke="none" d="M 2534,6913 L 2534,7163 2784,7163 2784,6913 2534,6913 Z"/>
 <path fill="none" stroke="rgb(0,69,134)" stroke-linejoin="round" d="M 2534,6913 L 2534,7163 2784,7163 2784,6913 2534,6913 Z"/>
 <path fill="rgb(0,69,134)" stroke="none" d="M 5051,6416 L 5051,6666 5301,6666 5301,6416 5051,6416 Z"/>
 <path fill="none" stroke="rgb(0,69,134)" stroke-linejoin="round" d="M 5051,6416 L 5051,6666 5301,6666 5301,6416 5051,6416 Z"/>
 <path fill="rgb(0,69,134)" stroke="none" d="M 7568,6245 L 7568,6495 7818,6495 7818,6245 7568,6245 Z"/>
 <path fill="none" stroke="rgb(0,69,134)" stroke-linejoin="round" d="M 7568,6245 L 7568,6495 7818,6495 7818,6245 7568,6245 Z"/>
 <path fill="rgb(0,69,134)" stroke="none" d="M 10085,6000 L 10085,6250 10335,6250 10335,6000 10085,6000 Z"/>
 <path fill="none" stroke="rgb(0,69,134)" stroke-linejoin="round" d="M 10085,6000 L 10085,6250 10335,6250 10335,6000 10085,6000 Z"/>
 <path fill="rgb(0,69,134)" stroke="none" d="M 12602,6087 L 12602,6337 12852,6337 12852,6087 12602,6087 Z"/>
 <path fill="none" stroke="rgb(0,69,134)" stroke-linejoin="round" d="M 12602,6087 L 12602,6337 12852,6337 12852,6087 12602,6087 Z"/>
 <path fill="none" stroke="rgb(255,66,14)" stroke-width="80" stroke-linejoin="round" d="M 2659,6544 L 5176,6184 7693,6104 10210,4212 12727,5519"/>
 <path fill="rgb(255,66,14)" stroke="none" d="M 2534,6544 L 2659,6669 2784,6544 2659,6419 2534,6544 Z"/>
 <path fill="none" stroke="rgb(255,66,14)" stroke-linejoin="round" d="M 2534,6544 L 2659,6669 2784,6544 2659,6419 2534,6544 Z"/>
 <path fill="rgb(255,66,14)" stroke="none" d="M 5051,6184 L 5176,6309 5301,6184 5176,6059 5051,6184 Z"/>
 <path fill="none" stroke="rgb(255,66,14)" stroke-linejoin="round" d="M 5051,6184 L 5176,6309 5301,6184 5176,6059 5051,6184 Z"/>
 <path fill="rgb(255,66,14)" stroke="none" d="M 7568,6104 L 7693,6229 7818,6104 7693,5979 7568,6104 Z"/>
 <path fill="none" stroke="rgb(255,66,14)" stroke-linejoin="round" d="M 7568,6104 L 7693,6229 7818,6104 7693,5979 7568,6104 Z"/>
 <path fill="rgb(255,66,14)" stroke="none" d="M 10085,4212 L 10210,4337 10335,4212 10210,4087 10085,4212 Z"/>
 <path fill="none" stroke="rgb(255,66,14)" stroke-linejoin="round" d="M 10085,4212 L 10210,4337 10335,4212 10210,4087 10085,4212 Z"/>
 <path fill="rgb(255,66,14)" stroke="none" d="M 12602,5519 L 12727,5644 12852,5519 12727,5394 12602,5519 Z"/>
 <path fill="none" stroke="rgb(255,66,14)" stroke-linejoin="round" d="M 12602,5519 L 12727,5644 12852,5519 12727,5394 12602,5519 Z"/>
 <path fill="none" stroke="rgb(255,211,32)" stroke-width="80" stroke-linejoin="round" d="M 2659,3071 L 5176,3096 7693,3085 10210,3003 12727,3283"/>
 <path fill="rgb(255,211,32)" stroke="none" d="M 2534,2946 L 2659,3196 2784,2946 2534,2946 Z"/>
 <path fill="none" stroke="rgb(255,211,32)" stroke-linejoin="round" d="M 2534,2946 L 2659,3196 2784,2946 2534,2946 Z"/>
 <path fill="rgb(255,211,32)" stroke="none" d="M 5051,2971 L 5176,3221 5301,2971 5051,2971 Z"/>
 <path fill="none" stroke="rgb(255,211,32)" stroke-linejoin="round" d="M 5051,2971 L 5176,3221 5301,2971 5051,2971 Z"/>
 <path fill="rgb(255,211,32)" stroke="none" d="M 7568,2960 L 7693,3210 7818,2960 7568,2960 Z"/>
 <path fill="none" stroke="rgb(255,211,32)" stroke-linejoin="round" d="M 7568,2960 L 7693,3210 7818,2960 7568,2960 Z"/>
 <path fill="rgb(255,211,32)" stroke="none" d="M 10085,2878 L 10210,3128 10335,2878 10085,2878 Z"/>
 <path fill="none" stroke="rgb(255,211,32)" stroke-linejoin="round" d="M 10085,2878 L 10210,3128 10335,2878 10085,2878 Z"/>
 <path fill="rgb(255,211,32)" stroke="none" d="M 12602,3158 L 12727,3408 12852,3158 12602,3158 Z"/>
 <path fill="none" stroke="rgb(255,211,32)" stroke-linejoin="round" d="M 12602,3158 L 12727,3408 12852,3158 12602,3158 Z"/>
 <path fill="none" stroke="rgb(87,157,28)" stroke-width="80" stroke-linejoin="round" d="M 2659,7038 L 5176,6541 7693,6370 10210,6125 12727,6212"/>
 <path fill="rgb(87,157,28)" stroke="none" d="M 2534,7163 L 2784,7163 2659,6913 2534,7163 Z"/>
 <path fill="none" stroke="rgb(87,157,28)" stroke-linejoin="round" d="M 2534,7163 L 2784,7163 2659,6913 2534,7163 Z"/>
 <path fill="rgb(87,157,28)" stroke="none" d="M 5051,6666 L 5301,6666 5176,6416 5051,6666 Z"/>
 <path fill="none" stroke="rgb(87,157,28)" stroke-linejoin="round" d="M 5051,6666 L 5301,6666 5176,6416 5051,6666 Z"/>
 <path fill="rgb(87,157,28)" stroke="none" d="M 7568,6495 L 7818,6495 7693,6245 7568,6495 Z"/>
 <path fill="none" stroke="rgb(87,157,28)" stroke-linejoin="round" d="M 7568,6495 L 7818,6495 7693,6245 7568,6495 Z"/>
 <path fill="rgb(87,157,28)" stroke="none" d="M 10085,6250 L 10335,6250 10210,6000 10085,6250 Z"/>
 <path fill="none" stroke="rgb(87,157,28)" stroke-linejoin="round" d="M 10085,6250 L 10335,6250 10210,6000 10085,6250 Z"/>
 <path fill="rgb(87,157,28)" stroke="none" d="M 12602,6337 L 12852,6337 12727,6087 12602,6337 Z"/>
 <path fill="none" stroke="rgb(87,157,28)" stroke-linejoin="round" d="M 12602,6337 L 12852,6337 12727,6087 12602,6337 Z"/>
 <path fill="none" stroke="rgb(126,0,33)" stroke-width="80" stroke-linejoin="round" d="M 2659,6556 L 5176,6214 7693,5905 10210,5478 12727,5127"/>
 <path fill="rgb(126,0,33)" stroke="none" d="M 2534,6431 L 2534,6681 2784,6556 2534,6431 Z"/>
 <path fill="none" stroke="rgb(126,0,33)" stroke-linejoin="round" d="M 2534,6431 L 2534,6681 2784,6556 2534,6431 Z"/>
 <path fill="rgb(126,0,33)" stroke="none" d="M 5051,6089 L 5051,6339 5301,6214 5051,6089 Z"/>
 <path fill="none" stroke="rgb(126,0,33)" stroke-linejoin="round" d="M 5051,6089 L 5051,6339 5301,6214 5051,6089 Z"/>
 <path fill="rgb(126,0,33)" stroke="none" d="M 7568,5780 L 7568,6030 7818,5905 7568,5780 Z"/>
 <path fill="none" stroke="rgb(126,0,33)" stroke-linejoin="round" d="M 7568,5780 L 7568,6030 7818,5905 7568,5780 Z"/>
 <path fill="rgb(126,0,33)" stroke="none" d="M 10085,5353 L 10085,5603 10335,5478 10085,5353 Z"/>
 <path fill="none" stroke="rgb(126,0,33)" stroke-linejoin="round" d="M 10085,5353 L 10085,5603 10335,5478 10085,5353 Z"/>
 <path fill="rgb(126,0,33)" stroke="none" d="M 12602,5002 L 12602,5252 12852,5127 12602,5002 Z"/>
 <path fill="none" stroke="rgb(126,0,33)" stroke-linejoin="round" d="M 12602,5002 L 12602,5252 12852,5127 12602,5002 Z"/>
 <path fill="none" stroke="rgb(131,202,255)" stroke-width="80" stroke-linejoin="round" d="M 2659,3032 L 5176,2640 7693,2593 10210,2449 12727,2614"/>
 <path fill="rgb(131,202,255)" stroke="none" d="M 2534,3032 L 2784,3157 2784,2907 2534,3032 Z"/>
 <path fill="none" stroke="rgb(131,202,255)" stroke-linejoin="round" d="M 2534,3032 L 2784,3157 2784,2907 2534,3032 Z"/>
 <path fill="rgb(131,202,255)" stroke="none" d="M 5051,2640 L 5301,2765 5301,2515 5051,2640 Z"/>
 <path fill="none" stroke="rgb(131,202,255)" stroke-linejoin="round" d="M 5051,2640 L 5301,2765 5301,2515 5051,2640 Z"/>
 <path fill="rgb(131,202,255)" stroke="none" d="M 7568,2593 L 7818,2718 7818,2468 7568,2593 Z"/>
 <path fill="none" stroke="rgb(131,202,255)" stroke-linejoin="round" d="M 7568,2593 L 7818,2718 7818,2468 7568,2593 Z"/>
 <path fill="rgb(131,202,255)" stroke="none" d="M 10085,2449 L 10335,2574 10335,2324 10085,2449 Z"/>
 <path fill="none" stroke="rgb(131,202,255)" stroke-linejoin="round" d="M 10085,2449 L 10335,2574 10335,2324 10085,2449 Z"/>
 <path fill="rgb(131,202,255)" stroke="none" d="M 12602,2614 L 12852,2739 12852,2489 12602,2614 Z"/>
 <path fill="none" stroke="rgb(131,202,255)" stroke-linejoin="round" d="M 12602,2614 L 12852,2739 12852,2489 12602,2614 Z"/>
 <text class="TextShape"><tspan class="TextParagraph" font-family="Liberation Sans, sans-serif" font-size="353px" font-weight="400"><tspan class="TextPosition" x="2562" y="5764"><tspan fill="rgb(0,0,0)" stroke="none">2</tspan></tspan></tspan></text>
 <text class="TextShape"><tspan class="TextParagraph" font-family="Liberation Sans, sans-serif" font-size="353px" font-weight="400"><tspan class="TextPosition" x="5079" y="5764"><tspan fill="rgb(0,0,0)" stroke="none">4</tspan></tspan></tspan></text>
 <text class="TextShape"><tspan class="TextParagraph" font-family="Liberation Sans, sans-serif" font-size="353px" font-weight="400"><tspan class="TextPosition" x="7596" y="5764"><tspan fill="rgb(0,0,0)" stroke="none">6</tspan></tspan></tspan></text>
 <text class="TextShape"><tspan class="TextParagraph" font-family="Liberation Sans, sans-serif" font-size="353px" font-weight="400"><tspan class="TextPosition" x="10114" y="5764"><tspan fill="rgb(0,0,0)" stroke="none">8</tspan></tspan></tspan></text>
 <text class="TextShape"><tspan class="TextParagraph" font-family="Liberation Sans, sans-serif" font-size="353px" font-weight="400"><tspan class="TextPosition" x="12534" y="5764"><tspan fill="rgb(0,0,0)" stroke="none">10</tspan></tspan></tspan></text>
 <text class="TextShape"><tspan class="TextParagraph" font-family="Liberation Sans, sans-serif" font-size="353px" font-weight="400"><tspan class="TextPosition" x="1315" y="7787"><tspan fill="rgb(0,0,0)" stroke="none">-10000</tspan></tspan></tspan></text>
 <text class="TextShape"><tspan class="TextParagraph" font-family="Liberation Sans, sans-serif" font-size="353px" font-weight="400"><tspan class="TextPosition" x="1509" y="6554"><tspan fill="rgb(0,0,0)" stroke="none">-5000</tspan></tspan></tspan></text>
 <text class="TextShape"><tspan class="TextParagraph" font-family="Liberation Sans, sans-serif" font-size="353px" font-weight="400"><tspan class="TextPosition" x="2215" y="5321"><tspan fill="rgb(0,0,0)" stroke="none">0</tspan></tspan></tspan></text>
 <text class="TextShape"><tspan class="TextParagraph" font-family="Liberation Sans, sans-serif" font-size="353px" font-weight="400"><tspan class="TextPosition" x="1633" y="4087"><tspan fill="rgb(0,0,0)" stroke="none">5000</tspan></tspan></tspan></text>
 <text class="TextShape"><tspan class="TextParagraph" font-family="Liberation Sans, sans-serif" font-size="353px" font-weight="400"><tspan class="TextPosition" x="1439" y="2855"><tspan fill="rgb(0,0,0)" stroke="none">10000</tspan></tspan></tspan></text>
 <text class="TextShape"><tspan class="TextParagraph" font-family="Liberation Sans, sans-serif" font-size="353px" font-weight="400"><tspan class="TextPosition" x="1439" y="1622"><tspan fill="rgb(0,0,0)" stroke="none">15000</tspan></tspan></tspan></text>
 <text class="TextShape"><tspan class="TextParagraph" font-family="Liberation Sans, sans-serif" font-size="459px" font-weight="400"><tspan class="TextPosition" x="6694" y="880"><tspan fill="rgb(0,0,0)" stroke="none">Low capacity</tspan></tspan></tspan></text>
 <path fill="none" stroke="rgb(0,69,134)" stroke-width="80" stroke-linejoin="round" d="M 13360,3277 L 14160,3277"/>
 <path fill="rgb(0,69,134)" stroke="none" d="M 13654,3172 L 13654,3383 13865,3383 13865,3172 13654,3172 Z"/>
 <path fill="none" stroke="rgb(0,69,134)" stroke-linejoin="round" d="M 13654,3172 L 13654,3383 13865,3383 13865,3172 13654,3172 Z"/>
 <path fill="none" stroke="rgb(255,66,14)" stroke-width="80" stroke-linejoin="round" d="M 13360,3767 L 14160,3767"/>
 <path fill="rgb(255,66,14)" stroke="none" d="M 13654,3767 L 13760,3873 13865,3767 13760,3662 13654,3767 Z"/>
 <path fill="none" stroke="rgb(255,66,14)" stroke-linejoin="round" d="M 13654,3767 L 13760,3873 13865,3767 13760,3662 13654,3767 Z"/>
 <path fill="none" stroke="rgb(255,211,32)" stroke-width="80" stroke-linejoin="round" d="M 13360,4257 L 14160,4257"/>
 <path fill="rgb(255,211,32)" stroke="none" d="M 13654,4152 L 13760,4363 13865,4152 13654,4152 Z"/>
 <path fill="none" stroke="rgb(255,211,32)" stroke-linejoin="round" d="M 13654,4152 L 13760,4363 13865,4152 13654,4152 Z"/>
 <path fill="none" stroke="rgb(87,157,28)" stroke-width="80" stroke-linejoin="round" d="M 13360,4746 L 14160,4746"/>
 <path fill="rgb(87,157,28)" stroke="none" d="M 13654,4852 L 13865,4852 13760,4641 13654,4852 Z"/>
 <path fill="none" stroke="rgb(87,157,28)" stroke-linejoin="round" d="M 13654,4852 L 13865,4852 13760,4641 13654,4852 Z"/>
 <path fill="none" stroke="rgb(126,0,33)" stroke-width="80" stroke-linejoin="round" d="M 13360,5236 L 14160,5236"/>
 <path fill="rgb(126,0,33)" stroke="none" d="M 13654,5131 L 13654,5342 13865,5236 13654,5131 Z"/>
 <path fill="none" stroke="rgb(126,0,33)" stroke-linejoin="round" d="M 13654,5131 L 13654,5342 13865,5236 13654,5131 Z"/>
 <path fill="none" stroke="rgb(131,202,255)" stroke-width="80" stroke-linejoin="round" d="M 13360,5726 L 14160,5726"/>
 <path fill="rgb(131,202,255)" stroke="none" d="M 13654,5726 L 13865,5832 13865,5621 13654,5726 Z"/>
 <path fill="none" stroke="rgb(131,202,255)" stroke-linejoin="round" d="M 13654,5726 L 13865,5832 13865,5621 13654,5726 Z"/>
 <text class="TextShape"><tspan class="TextParagraph" font-family="Liberation Sans, sans-serif" font-size="353px" font-weight="400"><tspan class="TextPosition" x="14260" y="3401"><tspan fill="rgb(0,0,0)" stroke="none">BP-FF</tspan></tspan></tspan></text>
 <text class="TextShape"><tspan class="TextParagraph" font-family="Liberation Sans, sans-serif" font-size="353px" font-weight="400"><tspan class="TextPosition" x="14260" y="3891"><tspan fill="rgb(0,0,0)" stroke="none">Xu et al.</tspan></tspan></tspan></text>
 <text class="TextShape"><tspan class="TextParagraph" font-family="Liberation Sans, sans-serif" font-size="353px" font-weight="400"><tspan class="TextPosition" x="14260" y="4381"><tspan fill="rgb(0,0,0)" stroke="none">TABLE</tspan></tspan></tspan></text>
 <text class="TextShape"><tspan class="TextParagraph" font-family="Liberation Sans, sans-serif" font-size="353px" font-weight="400"><tspan class="TextPosition" x="14260" y="4870"><tspan fill="rgb(0,0,0)" stroke="none">TOWEL</tspan></tspan></tspan></text>
 <text class="TextShape"><tspan class="TextParagraph" font-family="Liberation Sans, sans-serif" font-size="353px" font-weight="400"><tspan class="TextPosition" x="14260" y="5360"><tspan fill="rgb(0,0,0)" stroke="none">ROTATE</tspan></tspan></tspan></text>
 <text class="TextShape"><tspan class="TextParagraph" font-family="Liberation Sans, sans-serif" font-size="353px" font-weight="400"><tspan class="TextPosition" x="14260" y="5850"><tspan fill="rgb(0,0,0)" stroke="none">Primal</tspan></tspan></tspan></text>
 <text class="TextShape"><tspan class="TextParagraph" font-family="Liberation Sans, sans-serif" font-size="318px" font-weight="400"><tspan class="TextPosition" x="6052" y="8417"><tspan fill="rgb(0,0,0)" stroke="none">Server quantity</tspan></tspan></tspan></text>
 <text class="TextShape" transform="translate(828,5665) rotate(-90) translate(-828,-5665)"><tspan class="TextParagraph" font-family="Liberation Sans, sans-serif" font-size="318px" font-weight="400"><tspan class="TextPosition" x="828" y="5665"><tspan fill="rgb(0,0,0)" stroke="none">Objective value</tspan></tspan></tspan></text>
</svg>