<?xml version="1.0" encoding="UTF-8" standalone="no"?>
<!-- Created with Inkscape (http://www.inkscape.org/) -->

<svg
   xmlns:dc="http://purl.org/dc/elements/1.1/"
   xmlns:cc="http://creativecommons.org/ns#"
   xmlns:rdf="http://www.w3.org/1999/02/22-rdf-syntax-ns#"
   xmlns:svg="http://www.w3.org/2000/svg"
   xmlns="http://www.w3.org/2000/svg"
   xmlns:sodipodi="http://sodipodi.sourceforge.net/DTD/sodipodi-0.dtd"
   xmlns:inkscape="http://www.inkscape.org/namespaces/inkscape"
   width="800"
   height="600"
   viewBox="0 0 800.00004 600"
   id="svg2"
   version="1.1"
   inkscape:version="0.91 r13725"
   inkscape:export-filename="C:\Users\oplab_ACER\Desktop\bitmap.png"
   inkscape:export-xdpi="90"
   inkscape:export-ydpi="90"
   sodipodi:docname="ta3.svg">
  <defs
     id="defs4" />
  <sodipodi:namedview
     id="base"
     pagecolor="#ffffff"
     bordercolor="#666666"
     borderopacity="1.0"
     inkscape:pageopacity="0.0"
     inkscape:pageshadow="2"
     inkscape:zoom="0.81"
     inkscape:cx="400"
     inkscape:cy="300"
     inkscape:document-units="px"
     inkscape:current-layer="layer1"
     showgrid="false"
     units="px"
     showborder="true"
     inkscape:showpageshadow="false"
     showguides="true"
     inkscape:window-width="1280"
     inkscape:window-height="657"
     inkscape:window-x="-8"
     inkscape:window-y="-8"
     inkscape:window-maximized="1">
    <inkscape:grid
       type="xygrid"
       id="grid5132" />
  </sodipodi:namedview>
  <metadata
     id="metadata7">
    <rdf:RDF>
      <cc:Work
         rdf:about="">
        <dc:format>image/svg+xml</dc:format>
        <dc:type
           rdf:resource="http://purl.org/dc/dcmitype/StillImage" />
        <dc:title></dc:title>
      </cc:Work>
    </rdf:RDF>
  </metadata>
  <g
     inkscape:label="Layer 1"
     inkscape:groupmode="layer"
     id="layer1"
     transform="translate(0,-452.36218)">
    <g
       id="g5202"
       transform="translate(0,100)">
      <path
         inkscape:connector-curvature="0"
         id="path5130"
         d="m 50.000003,498.81258 700.000037,0"
         style="fill:none;fill-rule:evenodd;stroke:#000000;stroke-width:7.09914637;stroke-linecap:butt;stroke-linejoin:miter;stroke-miterlimit:4;stroke-dasharray:none;stroke-opacity:1" />
      <path
         inkscape:connector-curvature="0"
         id="path5134"
         d="m 51.771657,482.36215 0,20"
         style="fill:none;fill-rule:evenodd;stroke:#000000;stroke-width:3.5433073;stroke-linecap:butt;stroke-linejoin:miter;stroke-miterlimit:4;stroke-dasharray:none;stroke-opacity:1" />
      <path
         inkscape:connector-curvature="0"
         id="path5134-4"
         d="m 151.77166,482.36216 0,20"
         style="fill:none;fill-rule:evenodd;stroke:#000000;stroke-width:3.5433073;stroke-linecap:butt;stroke-linejoin:miter;stroke-miterlimit:4;stroke-dasharray:none;stroke-opacity:1" />
      <path
         inkscape:connector-curvature="0"
         id="path5134-4-5"
         d="m 251.77167,482.36216 0,20"
         style="fill:none;fill-rule:evenodd;stroke:#000000;stroke-width:3.5433073;stroke-linecap:butt;stroke-linejoin:miter;stroke-miterlimit:4;stroke-dasharray:none;stroke-opacity:1" />
      <path
         inkscape:connector-curvature="0"
         id="path5134-4-3"
         d="m 351.77167,482.36216 0,20"
         style="fill:none;fill-rule:evenodd;stroke:#000000;stroke-width:3.5433073;stroke-linecap:butt;stroke-linejoin:miter;stroke-miterlimit:4;stroke-dasharray:none;stroke-opacity:1" />
      <path
         inkscape:connector-curvature="0"
         id="path5134-4-2"
         d="m 451.77168,482.36216 0,20"
         style="fill:none;fill-rule:evenodd;stroke:#000000;stroke-width:3.5433073;stroke-linecap:butt;stroke-linejoin:miter;stroke-miterlimit:4;stroke-dasharray:none;stroke-opacity:1" />
      <path
         inkscape:connector-curvature="0"
         id="path5134-4-8"
         d="m 551.77169,482.36216 0,20"
         style="fill:none;fill-rule:evenodd;stroke:#000000;stroke-width:3.5433073;stroke-linecap:butt;stroke-linejoin:miter;stroke-miterlimit:4;stroke-dasharray:none;stroke-opacity:1" />
      <path
         inkscape:connector-curvature="0"
         id="path5134-4-29"
         d="m 651.77154,482.36216 0,20"
         style="fill:none;fill-rule:evenodd;stroke:#000000;stroke-width:3.5433073;stroke-linecap:butt;stroke-linejoin:miter;stroke-miterlimit:4;stroke-dasharray:none;stroke-opacity:1" />
      <path
         inkscape:connector-curvature="0"
         id="path5134-4-23"
         d="m 751.7717,482.36216 0,20"
         style="fill:none;fill-rule:evenodd;stroke:#000000;stroke-width:3.5433073;stroke-linecap:butt;stroke-linejoin:miter;stroke-miterlimit:4;stroke-dasharray:none;stroke-opacity:1" />
    </g>
    <text
       xml:space="preserve"
       style="font-style:normal;font-weight:normal;font-size:40px;line-height:125%;font-family:Arial;letter-spacing:0px;word-spacing:0px;fill:#000000;fill-opacity:1;stroke:none;stroke-width:1px;stroke-linecap:butt;stroke-linejoin:miter;stroke-opacity:1;-inkscape-font-specification:Arial;font-stretch:normal;font-variant:normal;"
       x="40"
       y="492.36215"
       id="text5213"
       sodipodi:linespacing="125%"><tspan
         sodipodi:role="line"
         id="tspan5215"
         x="40"
         y="492.36215" /></text>
    <text
       xml:space="preserve"
       style="font-style:normal;font-weight:normal;font-size:40px;line-height:125%;font-family:sans-serif;letter-spacing:0px;word-spacing:0px;fill:#000000;fill-opacity:1;stroke:none;stroke-width:1px;stroke-linecap:butt;stroke-linejoin:miter;stroke-opacity:1"
       x="40.544537"
       y="557.85437"
       id="text5217"
       sodipodi:linespacing="125%"><tspan
         sodipodi:role="line"
         id="tspan5219"
         x="40.544537"
         y="557.85437"
         style="font-style:normal;font-variant:normal;font-weight:normal;font-stretch:normal;font-family:Arial;-inkscape-font-specification:Arial">1       2       3       4       5       6       7       8</tspan></text>
    <text
       xml:space="preserve"
       style="font-style:normal;font-weight:normal;font-size:40px;line-height:125%;font-family:sans-serif;letter-spacing:0px;word-spacing:0px;fill:#0000ff;fill-opacity:1;stroke:none;stroke-width:1px;stroke-linecap:butt;stroke-linejoin:miter;stroke-opacity:1;"
       x="19.641975"
       y="505.49792"
       id="text5221"
       sodipodi:linespacing="125%"><tspan
         sodipodi:role="line"
         id="tspan5223"
         x="19.641975"
         y="505.49792"
         style="font-size:25.00000191px;fill:#0000ff;fill-opacity:1;">Time</tspan></text>
    <path
       style="fill:none;fill-rule:evenodd;stroke:#00ff00;stroke-width:3.54330739;stroke-linecap:butt;stroke-linejoin:miter;stroke-miterlimit:4;stroke-dasharray:14.17322953, 14.17322953000000000;stroke-opacity:1;stroke-dashoffset:0"
       d="m 450.00003,950.59056 300.00001,0"
       id="path5225-3"
       inkscape:connector-curvature="0" />
    <path
       style="fill:none;fill-rule:evenodd;stroke:#00ffff;stroke-width:3.54330739;stroke-linecap:butt;stroke-linejoin:miter;stroke-miterlimit:4;stroke-dasharray:3.54330739, 7.08661475999999980;stroke-opacity:1;stroke-dashoffset:0"
       d="m 350.00002,800.59054 300.00002,0"
       id="path5225-6"
       inkscape:connector-curvature="0" />
    <path
       style="fill:none;fill-rule:evenodd;stroke:#00ff00;stroke-width:3.54330739;stroke-linecap:butt;stroke-linejoin:miter;stroke-miterlimit:4;stroke-dasharray:14.17322953,14.17322953;stroke-opacity:1;stroke-dashoffset:0"
       d="m 49.999993,1000.5906 200.000007,0"
       id="path5225-9"
       inkscape:connector-curvature="0" />
    <path
       style="fill:none;fill-rule:evenodd;stroke:#00ff00;stroke-width:3.54330739;stroke-linecap:butt;stroke-linejoin:miter;stroke-miterlimit:4;stroke-dasharray:14.17322953,14.17322953;stroke-opacity:1;stroke-dashoffset:0"
       d="m 250.00001,850.59054 100.00001,0"
       id="path5225-66"
       inkscape:connector-curvature="0" />
    <path
       style="fill:none;fill-rule:evenodd;stroke:#00ffff;stroke-width:3.54330741;stroke-linecap:butt;stroke-linejoin:miter;stroke-miterlimit:4;stroke-dasharray:3.54330741,7.0866148;stroke-opacity:1;stroke-dashoffset:0"
       d="m 150.00001,900.59055 200.00001,0"
       id="path5225-99"
       inkscape:connector-curvature="0" />
    <text
       xml:space="preserve"
       style="font-style:normal;font-weight:normal;font-size:40px;line-height:125%;font-family:sans-serif;letter-spacing:0px;word-spacing:0px;fill:#0000ff;fill-opacity:1;stroke:none;stroke-width:1px;stroke-linecap:butt;stroke-linejoin:miter;stroke-opacity:1;"
       x="20.087893"
       y="672.36212"
       id="text5278"
       sodipodi:linespacing="125%"><tspan
         sodipodi:role="line"
         id="tspan5280"
         x="20.087893"
         y="672.36212"
         style="font-size:25.00000224px;fill:#0000ff;fill-opacity:1">Task</tspan></text>
    <text
       xml:space="preserve"
       style="font-style:normal;font-weight:normal;font-size:40px;line-height:125%;font-family:sans-serif;letter-spacing:0px;word-spacing:0px;fill:#000000;fill-opacity:1;stroke:none;stroke-width:1px;stroke-linecap:butt;stroke-linejoin:miter;stroke-opacity:1"
       x="296.41974"
       y="812.23865"
       id="text5282-6"
       sodipodi:linespacing="125%"><tspan
         sodipodi:role="line"
         id="tspan5284-3"
         x="296.41974"
         y="812.23865">(3)</tspan></text>
    <text
       xml:space="preserve"
       style="font-style:normal;font-weight:normal;font-size:40px;line-height:125%;font-family:sans-serif;letter-spacing:0px;word-spacing:0px;fill:#000000;fill-opacity:1;stroke:none;stroke-width:1px;stroke-linecap:butt;stroke-linejoin:miter;stroke-opacity:1"
       x="195.18517"
       y="859.76953"
       id="text5282-76"
       sodipodi:linespacing="125%"><tspan
         sodipodi:role="line"
         id="tspan5284-5"
         x="195.18517"
         y="859.76953">(4)</tspan></text>
    <text
       xml:space="preserve"
       style="font-style:normal;font-weight:normal;font-size:40px;line-height:125%;font-family:sans-serif;letter-spacing:0px;word-spacing:0px;fill:#000000;fill-opacity:1;stroke:none;stroke-width:1px;stroke-linecap:butt;stroke-linejoin:miter;stroke-opacity:1"
       x="101.48145"
       y="911.00409"
       id="text5282-0"
       sodipodi:linespacing="125%"><tspan
         sodipodi:role="line"
         id="tspan5284-7"
         x="101.48145"
         y="911.00409">(5)</tspan></text>
    <text
       xml:space="preserve"
       style="font-style:normal;font-weight:normal;font-size:40px;line-height:125%;font-family:sans-serif;letter-spacing:0px;word-spacing:0px;fill:#000000;fill-opacity:1;stroke:none;stroke-width:1px;stroke-linecap:butt;stroke-linejoin:miter;stroke-opacity:1"
       x="401.48148"
       y="959.76953"
       id="text5282-2"
       sodipodi:linespacing="125%"><tspan
         sodipodi:role="line"
         id="tspan5284-0"
         x="401.48148"
         y="959.76953">(6)</tspan></text>
    <text
       xml:space="preserve"
       style="font-style:normal;font-weight:normal;font-size:40px;line-height:125%;font-family:sans-serif;letter-spacing:0px;word-spacing:0px;fill:#000000;fill-opacity:1;stroke:none;stroke-width:1px;stroke-linecap:butt;stroke-linejoin:miter;stroke-opacity:1"
       x="3.9505825"
       y="1011.004"
       id="text5282-03"
       sodipodi:linespacing="125%"><tspan
         sodipodi:role="line"
         id="tspan5284-9"
         x="3.9505825"
         y="1011.004">(7)</tspan></text>
  </g>
</svg>
